<?xml version="1.0" encoding="utf-8"?>
<!-- Generator: Adobe Illustrator 21.0.2, SVG Export Plug-In . SVG Version: 6.00 Build 0)  -->
<svg version="1.1" id="Camada_1" xmlns="http://www.w3.org/2000/svg" xmlns:xlink="http://www.w3.org/1999/xlink" x="0px" y="0px"
	 viewBox="0 0 58 72" style="enable-background:new 0 0 58 72;" xml:space="preserve">
<style type="text/css">
	.st0{fill:#C5C6C8;}
	.st1{fill:#FFFFFF;}
</style>
<g>
	<g>
		<path class="st0" d="M7.6,66.1c0,0.6-0.2,1-0.6,1.3s-1,0.5-1.7,0.5S4,67.8,3.5,67.6v-1c0.3,0.1,0.6,0.2,0.9,0.3
			c0.3,0.1,0.6,0.1,0.9,0.1c0.4,0,0.7-0.1,0.9-0.2c0.2-0.2,0.3-0.4,0.3-0.6c0-0.2-0.1-0.4-0.3-0.6S5.8,65.2,5.2,65
			c-0.6-0.2-1-0.5-1.2-0.8s-0.4-0.7-0.4-1.1c0-0.5,0.2-1,0.6-1.3s0.9-0.5,1.5-0.5c0.6,0,1.2,0.1,1.8,0.4l-0.3,0.9
			c-0.6-0.2-1.1-0.4-1.5-0.4c-0.3,0-0.6,0.1-0.8,0.2c-0.2,0.1-0.3,0.3-0.3,0.6c0,0.2,0,0.3,0.1,0.4c0.1,0.1,0.2,0.2,0.3,0.3
			s0.5,0.2,0.9,0.4c0.5,0.2,0.8,0.4,1,0.5s0.4,0.4,0.5,0.6S7.6,65.8,7.6,66.1z"/>
		<path class="st0" d="M10.9,67.9c-0.8,0-1.3-0.2-1.8-0.7c-0.4-0.4-0.6-1-0.6-1.8c0-0.8,0.2-1.4,0.6-1.9s0.9-0.7,1.6-0.7
			c0.6,0,1.1,0.2,1.5,0.6s0.6,0.9,0.6,1.6v0.6H9.5c0,0.5,0.1,0.8,0.4,1.1c0.2,0.3,0.6,0.4,1,0.4c0.3,0,0.6,0,0.8-0.1
			c0.2-0.1,0.5-0.1,0.8-0.3v0.8c-0.3,0.1-0.5,0.2-0.8,0.3S11.2,67.9,10.9,67.9z M10.7,63.7c-0.3,0-0.6,0.1-0.8,0.3
			c-0.2,0.2-0.3,0.5-0.4,0.9h2.2c0-0.4-0.1-0.7-0.3-0.9C11.3,63.8,11,63.7,10.7,63.7z"/>
		<path class="st0" d="M18,67.9h-1v-3c0-0.4-0.1-0.6-0.2-0.8c-0.1-0.2-0.4-0.3-0.7-0.3c-0.4,0-0.7,0.1-0.9,0.4
			c-0.2,0.3-0.3,0.7-0.3,1.3v2.4h-1V63h0.8l0.1,0.6h0.1c0.1-0.2,0.3-0.4,0.6-0.5c0.3-0.1,0.5-0.2,0.8-0.2c0.7,0,1.2,0.3,1.5,0.8h0.1
			c0.1-0.2,0.3-0.4,0.6-0.6s0.6-0.2,0.9-0.2c0.6,0,1,0.1,1.3,0.4c0.3,0.3,0.4,0.7,0.4,1.3v3.2h-1v-3c0-0.4-0.1-0.6-0.2-0.8
			c-0.1-0.2-0.4-0.3-0.7-0.3c-0.4,0-0.7,0.1-0.9,0.4c-0.2,0.3-0.3,0.6-0.3,1.2V67.9z"/>
		<path class="st0" d="M25.9,67.9h-1V61h1V67.9z"/>
		<path class="st0" d="M30.4,67.9l-0.2-0.7h0c-0.2,0.3-0.5,0.5-0.7,0.6c-0.2,0.1-0.5,0.2-0.9,0.2c-0.5,0-0.9-0.1-1.1-0.4
			c-0.3-0.3-0.4-0.6-0.4-1.1c0-0.5,0.2-0.9,0.6-1.1s0.9-0.4,1.7-0.4l0.8,0v-0.3c0-0.3-0.1-0.5-0.2-0.7c-0.1-0.2-0.4-0.2-0.7-0.2
			c-0.2,0-0.5,0-0.7,0.1s-0.4,0.2-0.7,0.3l-0.3-0.7c0.3-0.1,0.6-0.2,0.9-0.3c0.3-0.1,0.6-0.1,0.9-0.1c0.6,0,1.1,0.1,1.4,0.4
			c0.3,0.3,0.5,0.7,0.5,1.3v3.3H30.4z M28.9,67.1c0.4,0,0.7-0.1,0.9-0.3c0.2-0.2,0.3-0.5,0.3-0.9v-0.4l-0.6,0
			c-0.5,0-0.8,0.1-1.1,0.2c-0.2,0.1-0.3,0.4-0.3,0.7c0,0.2,0.1,0.4,0.2,0.5C28.4,67.1,28.6,67.1,28.9,67.1z"/>
		<path class="st0" d="M34.6,67.9c-0.7,0-1.3-0.2-1.7-0.6c-0.4-0.4-0.6-1-0.6-1.8c0-0.8,0.2-1.4,0.6-1.9c0.4-0.4,1-0.7,1.7-0.7
			c0.5,0,1,0.1,1.4,0.3L35.7,64c-0.4-0.2-0.8-0.3-1.1-0.3c-0.8,0-1.3,0.6-1.3,1.7c0,0.5,0.1,1,0.3,1.2c0.2,0.3,0.5,0.4,0.9,0.4
			c0.5,0,0.9-0.1,1.3-0.3v0.9c-0.2,0.1-0.4,0.2-0.6,0.2C35.1,67.9,34.9,67.9,34.6,67.9z"/>
		<path class="st0" d="M38.9,67.1c0.3,0,0.5,0,0.8-0.1v0.8c-0.1,0-0.3,0.1-0.4,0.1c-0.2,0-0.4,0.1-0.6,0.1c-1,0-1.5-0.5-1.5-1.5
			v-2.6h-0.7v-0.5l0.7-0.4l0.4-1h0.6V63h1.4v0.8h-1.4v2.6c0,0.2,0.1,0.4,0.2,0.6C38.5,67,38.7,67.1,38.9,67.1z"/>
		<path class="st0" d="M44.9,65.4c0,0.8-0.2,1.4-0.6,1.9s-1,0.7-1.7,0.7c-0.5,0-0.9-0.1-1.2-0.3s-0.6-0.5-0.8-0.9s-0.3-0.8-0.3-1.3
			c0-0.8,0.2-1.4,0.6-1.8s1-0.7,1.7-0.7c0.7,0,1.3,0.2,1.7,0.7C44.7,64,44.9,64.6,44.9,65.4z M41.4,65.4c0,1.1,0.4,1.7,1.2,1.7
			c0.8,0,1.2-0.6,1.2-1.7c0-1.1-0.4-1.7-1.2-1.7c-0.4,0-0.7,0.1-0.9,0.4C41.5,64.5,41.4,64.9,41.4,65.4z"/>
		<path class="st0" d="M49.4,66.5c0,0.5-0.2,0.8-0.5,1.1c-0.3,0.3-0.8,0.4-1.5,0.4c-0.6,0-1.2-0.1-1.6-0.3v-0.9
			c0.6,0.3,1.1,0.4,1.6,0.4c0.6,0,1-0.2,1-0.6c0-0.1,0-0.2-0.1-0.3s-0.2-0.2-0.3-0.3s-0.4-0.2-0.7-0.3c-0.6-0.2-0.9-0.4-1.1-0.7
			c-0.2-0.2-0.3-0.5-0.3-0.8c0-0.4,0.2-0.7,0.5-1c0.3-0.2,0.8-0.3,1.4-0.3c0.6,0,1.1,0.1,1.6,0.3L49,64c-0.5-0.2-1-0.3-1.3-0.3
			c-0.5,0-0.8,0.2-0.8,0.5c0,0.2,0.1,0.3,0.2,0.4c0.1,0.1,0.5,0.3,0.9,0.4c0.4,0.2,0.7,0.3,0.9,0.4s0.3,0.3,0.4,0.4
			C49.3,66,49.4,66.2,49.4,66.5z"/>
		<path class="st0" d="M52.6,67.9c-0.8,0-1.3-0.2-1.8-0.7c-0.4-0.4-0.6-1-0.6-1.8c0-0.8,0.2-1.4,0.6-1.9s0.9-0.7,1.6-0.7
			c0.6,0,1.1,0.2,1.5,0.6s0.6,0.9,0.6,1.6v0.6h-3.2c0,0.5,0.1,0.8,0.4,1.1c0.2,0.3,0.6,0.4,1,0.4c0.3,0,0.6,0,0.8-0.1
			c0.2-0.1,0.5-0.1,0.8-0.3v0.8c-0.3,0.1-0.5,0.2-0.8,0.3S52.9,67.9,52.6,67.9z M52.4,63.7c-0.3,0-0.6,0.1-0.8,0.3
			c-0.2,0.2-0.3,0.5-0.4,0.9h2.2c0-0.4-0.1-0.7-0.3-0.9C53,63.8,52.7,63.7,52.4,63.7z"/>
	</g>
	<g>
		<g>
			<g>
				<path class="st0" d="M29.1,54.8c-1.2,0-2.5-0.1-3.7-0.3c-7-1-13.2-4.6-17.5-10.3c-4.3-5.6-6.1-12.6-5.1-19.6
					c1-7,4.6-13.2,10.3-17.5C18.6,2.9,25.6,1.1,32.6,2c14.5,2,24.6,15.4,22.6,29.9l0,0c-1,7-4.6,13.2-10.3,17.5
					C40.4,53,34.8,54.8,29.1,54.8z M29,4.3c-5.2,0-10.2,1.7-14.4,4.9C9.4,13,6.1,18.7,5.3,25C4.4,31.4,6,37.7,9.9,42.8
					c3.9,5.1,9.5,8.4,15.8,9.3c6.3,0.9,12.6-0.8,17.8-4.6s8.4-9.5,9.3-15.8c1.8-13.1-7.4-25.2-20.5-27C31.2,4.4,30.1,4.3,29,4.3z"/>
			</g>
			<g>
				
					<rect x="4.2" y="27" transform="matrix(0.7071 -0.7071 0.7071 0.7071 -11.5173 28.7962)" class="st0" width="49.6" height="2.5"/>
			</g>
		</g>
		<g>
			<g>
				<g>
					<path class="st1" d="M22.7,11.5L22.7,11.5c0-1.4,1.1-2.5,2.5-2.5h7.5c1.4,0,2.5,1.1,2.5,2.5v0c0,1.4-1.1,2.5-2.5,2.5h-7.5
						C23.8,14,22.7,12.9,22.7,11.5z"/>
				</g>
				<g>
					<path class="st1" d="M32.9,12.8h-7.7c-0.6,0-1.1-0.5-1.1-1.1v-0.2c0-0.6,0.5-1.1,1.1-1.1h7.7c0.6,0,1.1,0.5,1.1,1.1v0.2
						C34,12.3,33.5,12.8,32.9,12.8z"/>
				</g>
				<g>
					<path class="st1" d="M24.8,48.9c-2.5,0-4.6-2-4.6-4.6V24c0-1.8,0.9-3.5,2.3-4.5c0.7-0.5,1.2-1.4,1.2-2.3v-5h10.5v5
						c0,1,0.4,1.9,1.2,2.3c1.4,0.9,2.3,2.6,2.3,4.5v20.3c0,2.5-2,4.6-4.6,4.6H24.8z"/>
				</g>
				<g>
					<path class="st1" d="M33,17.3v-3.7h-8v3.7c0,1.4-0.7,2.7-1.7,3.4l0,0c-1.1,0.7-1.7,2-1.7,3.4v20.3c0,1.8,1.5,3.3,3.3,3.3h8.4
						c1.8,0,3.3-1.5,3.3-3.3V24c0-1.4-0.7-2.7-1.7-3.4l0,0C33.7,20,33,18.7,33,17.3z"/>
				</g>
			</g>
		</g>
		<g>
			<g>
				<g>
					<path class="st0" d="M32.9,12.8h-7.7c-0.6,0-1.1-0.5-1.1-1.1v-0.2c0-0.6,0.5-1.1,1.1-1.1h7.7c0.6,0,1.1,0.5,1.1,1.1v0.2
						C34,12.3,33.5,12.8,32.9,12.8z"/>
				</g>
				<g>
					<path class="st0" d="M33,17.3v-3.7h-8v3.7c0,1.4-0.7,2.7-1.7,3.4l0,0c-1.1,0.7-1.7,2-1.7,3.4v20.3c0,1.8,1.5,3.3,3.3,3.3h8.4
						c1.8,0,3.3-1.5,3.3-3.3V24c0-1.4-0.7-2.7-1.7-3.4l0,0C33.7,20,33,18.7,33,17.3z"/>
				</g>
			</g>
		</g>
	</g>
</g>
</svg>
