<?xml version="1.0" encoding="utf-8"?>
<!-- Generator: Adobe Illustrator 19.0.0, SVG Export Plug-In . SVG Version: 6.00 Build 0)  -->
<svg version="1.1" id="Camada_1" xmlns="http://www.w3.org/2000/svg" xmlns:xlink="http://www.w3.org/1999/xlink" x="0px" y="0px"
	 viewBox="0 0 418.185 418.191" enable-background="new 0 0 418.185 418.191" xml:space="preserve">
<g id="XMLID_11_">
	<g id="XMLID_31_">
		<path id="XMLID_9_" fill="#FFFFFF" d="M415.252,209.084c0,113.864-92.303,206.162-206.15,206.162
			c-113.87,0-206.168-92.298-206.168-206.162c0-113.852,92.298-206.15,206.168-206.15C322.948,2.933,415.252,95.232,415.252,209.084
			z"/>
		<path id="XMLID_35_" fill="#666" d="M209.101,418.179C93.805,418.179,0,324.38,0,209.084C0,93.793,93.805,0,209.101,0
			c115.291,0,209.084,93.793,209.084,209.084C418.185,324.38,324.392,418.179,209.101,418.179z M209.101,5.867
			C97.036,5.867,5.867,97.03,5.867,209.084c0,112.059,91.169,203.228,203.234,203.228c112.053,0,203.217-91.169,203.217-203.228
			C412.318,97.03,321.155,5.867,209.101,5.867z"/>
	</g>
	<g id="XMLID_12_">
		<g id="XMLID_19_">
			<path id="XMLID_6_" fill="#FFFFFF" d="M211.049,277.707c31.353-2.802,85.932,20.655,85.932,20.655s21.131-9.924,23.262-35.294
				c0,0-43.934-42.84-57.468-75.527c-13.545-32.687-17.796,3.747-17.796,3.747l25.05,49.538l-55.715-25.714l-9.408,12.485
				l38.423,28.058l-36.314,1.92C207.015,257.573,182.493,279.449,211.049,277.707z"/>
			<path id="XMLID_20_" fill="#666" d="M297.033,301.577l-1.209-0.521c-0.539-0.229-54.334-23.085-84.511-20.426l-0.086,0.006
				c-9.236,0.579-14.616-1.226-16.387-5.46c-3.083-7.408,7.976-17.785,10.222-19.79l0.768-0.688l29.112-1.536l-34.171-24.952
				l12.628-16.753l50.214,23.176l-21.646-42.806l0.097-0.877c0.665-5.667,2.945-18.942,9.866-19.905
				c4.652-0.659,8.881,4.085,13.556,15.372c13.149,31.765,56.373,74.124,56.803,74.548l0.991,0.968l-0.115,1.381
				c-2.246,26.751-24.013,37.271-24.935,37.701L297.033,301.577z M216.573,274.539c29.525,0,72.141,17.183,80.271,20.581
				c4.131-2.32,18.123-11.557,20.34-30.945c-6.83-6.784-44.496-45.023-57.118-75.51c-4.738-11.442-7.328-11.803-7.357-11.803
				c-1.375,0.43-3.736,6.635-4.71,13.9l28.447,56.259l-61.215-28.253l-6.188,8.216l42.674,31.163l-43.499,2.303
				c-4.612,4.337-8.875,10.279-7.964,12.468c0.109,0.252,1.261,2.401,10.577,1.862C212.676,274.619,214.596,274.539,216.573,274.539
				z"/>
		</g>
		<g id="XMLID_13_">
			<path id="XMLID_3_" fill="#FFFFFF" d="M283.654,139.504c-8.48-20.707-32.155-30.613-52.861-22.122
				c-12.938,5.306-21.635,16.518-24.305,29.238c-14.714-15.802-38.182-21.75-59.347-13.064
				c-27.284,11.184-40.347,42.387-29.152,69.683c3.781,9.241,9.901,16.805,17.349,22.391c-0.172,0.069-0.344,0.109-0.504,0.177
				c-20.707,8.491-30.607,32.16-22.116,52.867c8.48,20.707,32.154,30.613,52.861,22.122c4.721-1.943,8.846-4.693,12.353-7.993
				c7.517,4.732,17.097,5.947,25.944,2.315c14.53-5.959,21.486-22.574,15.527-37.105c-1.146-2.785-2.773-5.191-4.606-7.38
				c20.856-10.399,32.223-32.934,28.969-55.348c5.89,0.355,11.952-0.527,17.773-2.922
				C282.245,183.879,292.146,160.211,283.654,139.504z"/>
			<path id="XMLID_14_" fill="#666" d="M150.201,306.785c-5.684,0-11.367-1.134-16.77-3.392
				c-10.709-4.481-19.028-12.863-23.428-23.606c-8.543-20.833,0.338-44.548,19.836-54.872c-6.36-5.672-11.35-12.702-14.565-20.563
				c-5.712-13.923-5.655-29.238,0.155-43.127c5.81-13.889,16.679-24.677,30.602-30.384c19.956-8.182,43.018-4.034,58.946,10.193
				c4.005-11.895,12.96-21.549,24.706-26.368c10.737-4.406,22.557-4.349,33.26,0.12c10.709,4.481,19.028,12.863,23.428,23.606l0,0
				c4.4,10.737,4.36,22.552-0.12,33.255c-4.481,10.709-12.857,19.034-23.6,23.434c-4.968,2.04-10.199,3.117-15.59,3.209
				c1.816,21.681-9.013,42.405-27.852,53.302c1.209,1.753,2.166,3.507,2.905,5.306c3.186,7.758,3.151,16.283-0.086,24.018
				c-3.231,7.729-9.288,13.74-17.04,16.919c-8.623,3.535-18.449,2.985-26.683-1.427c-3.501,2.985-7.397,5.369-11.608,7.099
				C161.374,305.69,155.787,306.785,150.201,306.785z M167.235,132.542c-6.406,0-12.857,1.215-18.982,3.73
				c-12.473,5.111-22.208,14.777-27.41,27.216c-5.208,12.439-5.254,26.161-0.138,38.64c3.421,8.365,9.087,15.676,16.392,21.154
				l4.177,3.134l-4.847,1.937c-9.769,3.982-17.017,11.178-20.896,20.443c-3.873,9.259-3.908,19.475-0.097,28.768
				c3.804,9.288,11.001,16.541,20.26,20.415c9.265,3.879,19.475,3.925,28.774,0.103c4.217-1.73,8.067-4.228,11.453-7.414
				l1.656-1.553l1.919,1.209c7.002,4.406,15.699,5.191,23.268,2.08c13.012-5.334,19.263-20.266,13.923-33.277
				c-0.905-2.2-2.257-4.366-4.137-6.606l-2.389-2.853l3.329-1.656c19.503-9.729,30.504-30.745,27.37-52.3l-0.516-3.57l3.598,0.218
				c5.747,0.338,11.276-0.567,16.478-2.704c9.293-3.81,16.541-11.007,20.42-20.271c3.873-9.259,3.908-19.475,0.097-28.768l0,0
				c-3.804-9.288-11.001-16.541-20.26-20.414c-9.265-3.879-19.475-3.919-28.774-0.103c-11.545,4.733-19.973,14.874-22.546,27.124
				l-1.163,5.541l-3.856-4.142C194.611,138.169,181.02,132.542,167.235,132.542z"/>
		</g>
	</g>
</g>
</svg>
