<?xml version="1.0" encoding="utf-8"?>
<!-- Generator: Adobe Illustrator 21.0.2, SVG Export Plug-In . SVG Version: 6.00 Build 0)  -->
<svg version="1.1" id="Camada_1" xmlns="http://www.w3.org/2000/svg" xmlns:xlink="http://www.w3.org/1999/xlink" x="0px" y="0px"
	 viewBox="0 0 54.4 72" style="enable-background:new 0 0 54.4 72;" xml:space="preserve">
<style type="text/css">
	.st0{fill:#C5C6C8;}
	.st1{fill:#FFFFFF;}
</style>
<g>
	<g>
		<g>
			<path class="st0" d="M27,55.8c-1.2,0-2.4-0.1-3.7-0.3C8.8,53.5-1.3,40.1,0.7,25.6c1-7,4.6-13.2,10.3-17.5
				c5.6-4.2,12.6-6,19.6-5.1c7,1,13.2,4.6,17.5,10.3s6.1,12.6,5.1,19.6C51.4,46.2,40,55.8,27,55.8z M26.9,5.3
				c-5.2,0-10.2,1.7-14.4,4.9C7.4,14,4.1,19.7,3.2,26C2.4,32.4,4,38.7,7.9,43.8s9.5,8.4,15.8,9.3c13.1,1.8,25.2-7.4,27-20.5l1.3,0.2
				l-1.3-0.2c0.9-6.3-0.8-12.6-4.6-17.8c-3.9-5.1-9.5-8.4-15.8-9.3C29.2,5.4,28.1,5.3,26.9,5.3z"/>
		</g>
		<g>
			
				<rect x="2.2" y="28" transform="matrix(0.7071 -0.7071 0.7071 0.7071 -12.7956 27.6369)" class="st0" width="49.6" height="2.5"/>
		</g>
		<g>
			<g>
				<path class="st1" d="M25.1,51.5v-2.9c-1.5-0.3-3.7-0.9-5.6-2.5c-4.4-3.6-4.5-8.2-4.5-8.4v-1.3h1.3c0.1,0,0.9,0,2.1,0.2
					C15,33.2,15,29.3,15,29.1v-1.3h1.3c0.1,0,1.1,0,2.5,0.3C15,24.6,15,20.4,15,20.2V19h1.3c0.2,0,4,0.1,7,2
					c-0.3-0.8-0.5-1.7-0.6-2.7c-0.7-5.7,3.3-9,3.5-9.2L27,8.5l0.8,0.7c0.2,0.1,4.1,3.5,3.5,9.2c-0.1,1-0.3,1.9-0.6,2.7
					c3-1.9,6.8-2,7-2H39v1.3c0,0.2,0,4.4-3.8,7.9c1.4-0.3,2.4-0.3,2.5-0.3H39v1.3c0,0.2,0,4.1-3.4,7.5c1.2-0.2,2.1-0.2,2.1-0.2H39
					v1.3c0,0.2-0.1,4.9-4.5,8.4c-2,1.6-4.1,2.2-5.6,2.5v2.9h-3.8V51.5z M28.9,31.3l0.1-0.1h-0.1V31.3z M25.1,31.3v-0.1H25
					C25,31.2,25.1,31.3,25.1,31.3z"/>
			</g>
			<g>
				<g>
					<rect x="26.4" y="24" class="st0" width="1.3" height="26.2"/>
				</g>
				<g>
					<path class="st0" d="M16.2,20.3c0,0,0,4.2,4,7.4c3.1,2.5,6.8,2.4,6.8,2.4s0.1-3.7-2.9-6.8C21.4,20.4,16.2,20.3,16.2,20.3z"/>
				</g>
				<g>
					<path class="st0" d="M37.8,20.3c0,0,0,4.2-4,7.4c-3.1,2.5-6.8,2.4-6.8,2.4s-0.1-3.7,2.9-6.8C32.6,20.4,37.8,20.3,37.8,20.3z"/>
				</g>
				<g>
					<path class="st0" d="M16.2,29.1c0,0,0,4.2,4,7.4C23.3,39,27,39,27,39s0.1-3.7-2.9-6.8C21.4,29.2,16.2,29.1,16.2,29.1z"/>
				</g>
				<g>
					<path class="st0" d="M37.8,29.1c0,0,0,4.2-4,7.4C30.7,39,27,39,27,39s-0.1-3.7,2.9-6.8C32.6,29.2,37.8,29.1,37.8,29.1z"/>
				</g>
				<g>
					<path class="st0" d="M16.2,37.6c0,0,0,4.2,4,7.4c3.1,2.5,6.8,2.4,6.8,2.4s0.1-3.7-2.9-6.8C21.4,37.7,16.2,37.6,16.2,37.6z"/>
				</g>
				<g>
					<path class="st0" d="M37.8,37.6c0,0,0,4.2-4,7.4c-3.1,2.5-6.8,2.4-6.8,2.4s-0.1-3.7,2.9-6.8C32.6,37.7,37.8,37.6,37.8,37.6z"/>
				</g>
				<g>
					<path class="st0" d="M27,10.1c0,0-3.6,3-3.1,8.1c0.4,3.9,3.1,6.5,3.1,6.5s2.6-2.6,3.1-6.5C30.6,13.1,27,10.1,27,10.1z"/>
				</g>
			</g>
		</g>
	</g>
	<g>
		<path class="st0" d="M7.2,67.1c0,0.6-0.2,1-0.6,1.3s-1,0.5-1.7,0.5s-1.3-0.1-1.8-0.3v-1c0.3,0.1,0.6,0.2,0.9,0.3
			C4.3,68,4.6,68,4.9,68c0.4,0,0.7-0.1,0.9-0.2c0.2-0.2,0.3-0.4,0.3-0.6S6,66.8,5.8,66.6S5.3,66.2,4.7,66s-1-0.5-1.2-0.8
			s-0.4-0.7-0.4-1.1c0-0.5,0.2-1,0.6-1.3s0.9-0.5,1.5-0.5s1.2,0.1,1.8,0.4l-0.3,0.9c-0.6-0.2-1.1-0.4-1.5-0.4
			c-0.3,0-0.6,0.1-0.8,0.2S4.2,63.8,4.2,64c0,0.2,0,0.3,0.1,0.4s0.2,0.2,0.3,0.3s0.5,0.2,0.9,0.4c0.5,0.2,0.8,0.4,1,0.5
			S6.9,66,7,66.2S7.2,66.8,7.2,67.1z"/>
		<path class="st0" d="M10.4,68.9c-0.8,0-1.3-0.2-1.8-0.7c-0.4-0.4-0.6-1-0.6-1.8s0.2-1.4,0.6-1.9s0.9-0.7,1.6-0.7
			c0.6,0,1.1,0.2,1.5,0.6s0.6,0.9,0.6,1.6v0.6H9.1c0,0.5,0.1,0.8,0.4,1.1s0.6,0.4,1,0.4c0.3,0,0.6,0,0.8-0.1s0.5-0.1,0.8-0.3v0.8
			c-0.3,0.1-0.5,0.2-0.8,0.3S10.8,68.9,10.4,68.9z M10.3,64.7c-0.3,0-0.6,0.1-0.8,0.3c-0.2,0.2-0.3,0.5-0.4,0.9h2.2
			c0-0.4-0.1-0.7-0.3-0.9S10.6,64.7,10.3,64.7z"/>
		<path class="st0" d="M17.6,68.8h-1v-3c0-0.4-0.1-0.6-0.2-0.8s-0.4-0.3-0.7-0.3c-0.4,0-0.7,0.1-0.9,0.4s-0.3,0.7-0.3,1.3v2.4h-1V64
			h0.8l0.1,0.6h0.1c0.1-0.2,0.3-0.4,0.6-0.5s0.5-0.2,0.8-0.2c0.7,0,1.2,0.3,1.5,0.8h0.1c0.1-0.2,0.3-0.4,0.6-0.6s0.6-0.2,0.9-0.2
			c0.6,0,1,0.1,1.3,0.4c0.3,0.3,0.4,0.7,0.4,1.3v3.2h-1v-3c0-0.4-0.1-0.6-0.2-0.8s-0.4-0.3-0.7-0.3c-0.4,0-0.7,0.1-0.9,0.4
			c-0.2,0.3-0.3,0.6-0.3,1.2C17.6,66.3,17.6,68.8,17.6,68.8z"/>
		<path class="st0" d="M28.5,64v0.6l-0.8,0.2c0.1,0.1,0.1,0.2,0.2,0.4s0.1,0.3,0.1,0.5c0,0.5-0.2,0.9-0.5,1.2s-0.8,0.4-1.4,0.4
			c-0.2,0-0.3,0-0.4,0c-0.2,0.1-0.3,0.3-0.3,0.5c0,0.1,0.1,0.2,0.2,0.3c0.1,0.1,0.3,0.1,0.6,0.1H27c0.5,0,0.9,0.1,1.2,0.3
			s0.4,0.6,0.4,1c0,0.6-0.2,1-0.7,1.3s-1.1,0.4-2,0.4c-0.7,0-1.2-0.1-1.5-0.4s-0.5-0.6-0.5-1c0-0.3,0.1-0.6,0.3-0.8
			c0.2-0.2,0.5-0.3,0.8-0.4c-0.1-0.1-0.3-0.2-0.3-0.3s-0.1-0.3-0.1-0.4c0-0.2,0.1-0.3,0.2-0.5s0.3-0.3,0.5-0.4
			c-0.3-0.1-0.5-0.3-0.6-0.5c-0.2-0.2-0.2-0.5-0.2-0.9c0-0.5,0.2-0.9,0.5-1.2c0.3-0.3,0.8-0.4,1.4-0.4c0.1,0,0.3,0,0.4,0
			c0.2,0,0.3,0,0.3,0.1L28.5,64L28.5,64z M24.7,69.6c0,0.2,0.1,0.4,0.3,0.5c0.2,0.1,0.5,0.2,0.8,0.2c0.6,0,1-0.1,1.3-0.2
			s0.4-0.4,0.4-0.6s-0.1-0.4-0.2-0.5s-0.4-0.1-0.8-0.1h-0.8c-0.3,0-0.5,0.1-0.7,0.2S24.7,69.4,24.7,69.6z M25.2,65.6
			c0,0.3,0.1,0.5,0.2,0.7c0.2,0.2,0.4,0.2,0.7,0.2c0.6,0,0.9-0.3,0.9-1c0-0.3-0.1-0.6-0.2-0.7s-0.4-0.3-0.7-0.3
			c-0.3,0-0.5,0.1-0.7,0.3C25.3,65,25.2,65.2,25.2,65.6z"/>
		<path class="st0" d="M30.5,68.8h-1V62h1V68.8z"/>
		<path class="st0" d="M35.4,68.8l-0.1-0.6h-0.1c-0.1,0.2-0.3,0.4-0.6,0.5s-0.6,0.2-0.9,0.2c-0.6,0-1-0.1-1.3-0.4S32,67.8,32,67.2
			V64h1v3c0,0.4,0.1,0.7,0.2,0.8s0.4,0.3,0.7,0.3c0.4,0,0.8-0.1,1-0.4s0.3-0.7,0.3-1.3V64h1v4.9L35.4,68.8L35.4,68.8z M33.4,63.4
			L33.4,63.4c0.2-0.3,0.3-0.5,0.5-0.8s0.3-0.5,0.4-0.6h1.2v0c-0.2,0.2-0.4,0.4-0.7,0.7s-0.6,0.5-0.8,0.7H33.4z"/>
		<path class="st0" d="M39.5,68.1c0.3,0,0.5,0,0.8-0.1v0.8c-0.1,0-0.3,0.1-0.4,0.1c-0.2,0-0.4,0.1-0.6,0.1c-1,0-1.5-0.5-1.5-1.5
			v-2.6h-0.7v-0.5l0.7-0.4l0.4-1h0.6v1h1.4v0.8h-1.4v2.6c0,0.2,0.1,0.4,0.2,0.6S39.3,68.1,39.5,68.1z"/>
		<path class="st0" d="M43.3,68.9c-0.8,0-1.3-0.2-1.8-0.7c-0.4-0.4-0.6-1-0.6-1.8s0.2-1.4,0.6-1.9s0.9-0.7,1.6-0.7
			c0.6,0,1.1,0.2,1.5,0.6s0.6,0.9,0.6,1.6v0.6H42c0,0.5,0.1,0.8,0.4,1.1s0.6,0.4,1,0.4c0.3,0,0.6,0,0.8-0.1s0.5-0.1,0.8-0.3v0.8
			c-0.3,0.1-0.5,0.2-0.8,0.3S43.7,68.9,43.3,68.9z M43.1,64.7c-0.3,0-0.6,0.1-0.8,0.3c-0.2,0.2-0.3,0.5-0.4,0.9h2.2
			c0-0.4-0.1-0.7-0.3-0.9S43.5,64.7,43.1,64.7z"/>
		<path class="st0" d="M50.7,68.8h-1v-3c0-0.4-0.1-0.7-0.2-0.8c-0.2-0.2-0.4-0.3-0.7-0.3c-0.4,0-0.8,0.1-1,0.4s-0.3,0.7-0.3,1.3v2.4
			h-1V64h0.8l0.1,0.6h0.1c0.1-0.2,0.4-0.4,0.6-0.5s0.6-0.2,0.9-0.2c1.2,0,1.7,0.6,1.7,1.8C50.7,65.7,50.7,68.8,50.7,68.8z"/>
	</g>
</g>
</svg>
